<?xml version="1.0" encoding="UTF-8"?>
<testng-results skipped="0" failed="0" ignored="2" total="8" passed="6">
  <reporter-output>
  </reporter-output>
  <suite name="Surefire suite" duration-ms="36035" started-at="2021-07-16T02:01:15Z" finished-at="2021-07-16T02:01:51Z">
    <groups>
    </groups>
    <test name="Surefire test" duration-ms="36035" started-at="2021-07-16T02:01:15Z" finished-at="2021-07-16T02:01:51Z">
      <class name="tests.RegisterAnAccountTest">
        <test-method status="PASS" signature="before()[pri:0, instance:tests.RegisterAnAccountTest@3a03464]" name="before" is-config="true" duration-ms="11967" started-at="2021-07-16T02:01:03Z" finished-at="2021-07-16T02:01:15Z">
          <reporter-output>
          </reporter-output>
        </test-method> <!-- before -->
        <test-method status="PASS" signature="RegisterAnAccountSuccessfully()[pri:1, instance:tests.RegisterAnAccountTest@3a03464]" name="RegisterAnAccountSuccessfully" duration-ms="8736" started-at="2021-07-16T02:01:15Z" finished-at="2021-07-16T02:01:24Z">
          <reporter-output>
          </reporter-output>
        </test-method> <!-- RegisterAnAccountSuccessfully -->
        <test-method status="PASS" signature="ScreenhotFailure(org.testng.ITestResult)[pri:0, instance:tests.RegisterAnAccountTest@3a03464]" name="ScreenhotFailure" is-config="true" duration-ms="1" started-at="2021-07-16T02:01:24Z" finished-at="2021-07-16T02:01:24Z">
          <params>
            <param index="0">
              <value>
                <![CDATA[[TestResult name=RegisterAnAccountSuccessfully status=SUCCESS method=RegisterAnAccountTest.RegisterAnAccountSuccessfully()[pri:1, instance:tests.RegisterAnAccountTest@3a03464] output={null}]]]>
              </value>
            </param>
          </params>
          <reporter-output>
          </reporter-output>
        </test-method> <!-- ScreenhotFailure -->
        <test-method status="PASS" signature="AddItemFromSearch()[pri:2, instance:tests.RegisterAnAccountTest@3a03464]" name="AddItemFromSearch" duration-ms="4215" started-at="2021-07-16T02:01:24Z" finished-at="2021-07-16T02:01:28Z">
          <reporter-output>
          </reporter-output>
        </test-method> <!-- AddItemFromSearch -->
        <test-method status="PASS" signature="ScreenhotFailure(org.testng.ITestResult)[pri:0, instance:tests.RegisterAnAccountTest@3a03464]" name="ScreenhotFailure" is-config="true" duration-ms="0" started-at="2021-07-16T02:01:28Z" finished-at="2021-07-16T02:01:28Z">
          <params>
            <param index="0">
              <value>
                <![CDATA[[TestResult name=AddItemFromSearch status=SUCCESS method=RegisterAnAccountTest.AddItemFromSearch()[pri:2, instance:tests.RegisterAnAccountTest@3a03464] output={null}]]]>
              </value>
            </param>
          </params>
          <reporter-output>
          </reporter-output>
        </test-method> <!-- ScreenhotFailure -->
        <test-method status="PASS" signature="AddItemFromWomenCategory()[pri:3, instance:tests.RegisterAnAccountTest@3a03464]" name="AddItemFromWomenCategory" duration-ms="4675" started-at="2021-07-16T02:01:28Z" finished-at="2021-07-16T02:01:33Z">
          <reporter-output>
          </reporter-output>
        </test-method> <!-- AddItemFromWomenCategory -->
        <test-method status="PASS" signature="ScreenhotFailure(org.testng.ITestResult)[pri:0, instance:tests.RegisterAnAccountTest@3a03464]" name="ScreenhotFailure" is-config="true" duration-ms="0" started-at="2021-07-16T02:01:33Z" finished-at="2021-07-16T02:01:33Z">
          <params>
            <param index="0">
              <value>
                <![CDATA[[TestResult name=AddItemFromWomenCategory status=SUCCESS method=RegisterAnAccountTest.AddItemFromWomenCategory()[pri:3, instance:tests.RegisterAnAccountTest@3a03464] output={null}]]]>
              </value>
            </param>
          </params>
          <reporter-output>
          </reporter-output>
        </test-method> <!-- ScreenhotFailure -->
        <test-method status="PASS" signature="AddItemFromTshirts()[pri:4, instance:tests.RegisterAnAccountTest@3a03464]" name="AddItemFromTshirts" duration-ms="5537" started-at="2021-07-16T02:01:33Z" finished-at="2021-07-16T02:01:38Z">
          <reporter-output>
          </reporter-output>
        </test-method> <!-- AddItemFromTshirts -->
        <test-method status="PASS" signature="ScreenhotFailure(org.testng.ITestResult)[pri:0, instance:tests.RegisterAnAccountTest@3a03464]" name="ScreenhotFailure" is-config="true" duration-ms="1" started-at="2021-07-16T02:01:38Z" finished-at="2021-07-16T02:01:38Z">
          <params>
            <param index="0">
              <value>
                <![CDATA[[TestResult name=AddItemFromTshirts status=SUCCESS method=RegisterAnAccountTest.AddItemFromTshirts()[pri:4, instance:tests.RegisterAnAccountTest@3a03464] output={null}]]]>
              </value>
            </param>
          </params>
          <reporter-output>
          </reporter-output>
        </test-method> <!-- ScreenhotFailure -->
        <test-method status="PASS" signature="verifyItemIsDeleted()[pri:5, instance:tests.RegisterAnAccountTest@3a03464]" name="verifyItemIsDeleted" duration-ms="5080" started-at="2021-07-16T02:01:38Z" finished-at="2021-07-16T02:01:43Z">
          <reporter-output>
          </reporter-output>
        </test-method> <!-- verifyItemIsDeleted -->
        <test-method status="PASS" signature="ScreenhotFailure(org.testng.ITestResult)[pri:0, instance:tests.RegisterAnAccountTest@3a03464]" name="ScreenhotFailure" is-config="true" duration-ms="0" started-at="2021-07-16T02:01:43Z" finished-at="2021-07-16T02:01:43Z">
          <params>
            <param index="0">
              <value>
                <![CDATA[[TestResult name=verifyItemIsDeleted status=SUCCESS method=RegisterAnAccountTest.verifyItemIsDeleted()[pri:5, instance:tests.RegisterAnAccountTest@3a03464] output={null}]]]>
              </value>
            </param>
          </params>
          <reporter-output>
          </reporter-output>
        </test-method> <!-- ScreenhotFailure -->
        <test-method status="PASS" signature="verifyUserCanCheckout()[pri:6, instance:tests.RegisterAnAccountTest@3a03464]" name="verifyUserCanCheckout" duration-ms="7777" started-at="2021-07-16T02:01:43Z" finished-at="2021-07-16T02:01:51Z">
          <reporter-output>
          </reporter-output>
        </test-method> <!-- verifyUserCanCheckout -->
        <test-method status="PASS" signature="ScreenhotFailure(org.testng.ITestResult)[pri:0, instance:tests.RegisterAnAccountTest@3a03464]" name="ScreenhotFailure" is-config="true" duration-ms="0" started-at="2021-07-16T02:01:51Z" finished-at="2021-07-16T02:01:51Z">
          <params>
            <param index="0">
              <value>
                <![CDATA[[TestResult name=verifyUserCanCheckout status=SUCCESS method=RegisterAnAccountTest.verifyUserCanCheckout()[pri:6, instance:tests.RegisterAnAccountTest@3a03464] output={null}]]]>
              </value>
            </param>
          </params>
          <reporter-output>
          </reporter-output>
        </test-method> <!-- ScreenhotFailure -->
        <test-method status="PASS" signature="quitBrowser()[pri:0, instance:tests.RegisterAnAccountTest@3a03464]" name="quitBrowser" is-config="true" duration-ms="1857" started-at="2021-07-16T02:01:51Z" finished-at="2021-07-16T02:01:53Z">
          <reporter-output>
          </reporter-output>
        </test-method> <!-- quitBrowser -->
      </class> <!-- tests.RegisterAnAccountTest -->
    </test> <!-- Surefire test -->
  </suite> <!-- Surefire suite -->
</testng-results>
